AOR Aggregation
…
counties_info <- aors_counties |>
  left_join(nat_cit, by="fips")

I need to find better data on nativity of citizens; a lot of the counties don’t exist for this dataset.

counties_info |>
  st_drop_geometry() |> 
  group_by(aor) |>
  summarize(sum_na = sum(is.na(prop_not_a_citizen)))

# A tibble: 25 × 2
   aor       sum_na
   <chr>      <int>
 1 Atlanta      200
 2 Baltimore      8
 3 Boston        29
 4 Buffalo       24
 5 Chicago      492
 6 DC           103
 7 Dallas       169
 8 Denver        73
 9 Detroit      103
10 El Paso       39
# ℹ 15 more rows
…
