ICE Mapping Data Exploration
…
Citizenship Country

ice_cc_na_rm <- ice |>
  drop_na(citizenship_country)

ice_cc_na_rm |>
  group_by(citizenship_country) |>
  mutate(count = n(),
         prop = n()/ nrow(ice_cc_na_rm)) |>
  select(citizenship_country, count, prop) |>
  unique() |>
  arrange(by=desc(count))

# A tibble: 226 × 3
# Groups:   citizenship_country [226]
   citizenship_country  count   prop
   <chr>                <int>  <dbl>
 1 MEXICO              243568 0.348 
 2 GUATEMALA            66698 0.0952
 3 HONDURAS             57234 0.0817
 4 VENEZUELA            40807 0.0583
 5 EL SALVADOR          30068 0.0429
 6 CUBA                 23845 0.0341
 7 COLOMBIA             22235 0.0318
 8 DOMINICAN REPUBLIC   21764 0.0311
 9 NICARAGUA            21617 0.0309
10 ECUADOR              19237 0.0275
# ℹ 216 more rows
…
Highest proportion (20%) is “Other” followed by “Not in Custody” (17%)

ice |>
  group_by(processing_disposition) |>
  mutate(count = n(),
         prop = n()/ nrow(ice)) |>
  select(processing_disposition, count, prop) |>
  unique() |>
  arrange(by=desc(count))

# A tibble: 35 × 3
# Groups:   processing_disposition [35]
   processing_disposition               count    prop
   <chr>                                <int>   <dbl>
 1 Other                               140264 0.200  
 2 Not in Custody                      119330 0.170  
 3 Detainer                            100479 0.143  
 4 Not Amenable to Removal              99658 0.142  
 5 Prosecutorial Discretion             87116 0.124  
 6 Warrant of Arrest/Notice to Appear   81646 0.117  
 7 REINSTATEMENT OF DEPORT ORDER I-871  27154 0.0388 
 8 Bag and Baggage                      23512 0.0336 
 9 Expedited Removal (I-860)             5253 0.00750
10 Voluntary Return                      3602 0.00514
# ℹ 25 more rows
…
Case Category - need to look into what these mean

ice |>
  group_by(case_category) |>
  mutate(count = n(),
         prop = n()/ nrow(ice)) |>
  select(case_category, count, prop) |>
  unique() |>
  arrange(by=desc(count))

# A tibble: 30 × 3
# Groups:   case_category [30]
   case_category                                                   count    prop
   <chr>                                                           <int>   <dbl>
 1 <NA>                                                           439018 0.627  
 2 [8C] Excludable / Inadmissible - Administrative Final Order I…  63785 0.0911 
 3 [16] Reinstated Final Order                                     51714 0.0739 
 4 [8B] Excludable / Inadmissible - Under Adjudication by IJ       50245 0.0718 
 5 [8A] Excludable / Inadmissible - Hearing Not Commenced          34720 0.0496 
 6 [2A] Deportable - Under Adjudication by IJ                      14430 0.0206 
 7 [3] Deportable - Administratively Final Order                    9438 0.0135 
 8 [8G] Expedited Removal - Credible Fear Referral                  8010 0.0114 
 9 [8F] Expedited Removal                                           7983 0.0114 
10 [9] VR Under Safeguards                                          3812 0.00544
# ℹ 20 more rows
…
length(unique(ice$responsible_aor))

[1] 27

Responsible AORs

ice |>
  group_by(ice$responsible_aor) |>
  count() |>
  arrange(by=desc(n))

# A tibble: 27 × 2
# Groups:   ice$responsible_aor [27]
   `ice$responsible_aor`                     n
   <chr>                                 <int>
 1 HQ Area of Responsibility            205871
 2 Miami Area of Responsibility          65326
 3 New York City Area of Responsibility  42020
 4 Chicago Area of Responsibility        41327
 5 Atlanta Area of Responsibility        34825
 6 Dallas Area of Responsibility         34462
 7 New Orleans Area of Responsibility    28833
 8 Houston Area of Responsibility        24795
 9 San Antonio Area of Responsibility    24768
10 St. Paul Area of Responsibility       18023
# ℹ 17 more rows

Responsible Sites (Docket Offices)

#unique(ice$responsible_site)
length(unique(ice$responsible_site))

[1] 357

ice |>
  group_by(ice$responsible_site) |>
  count() |>
  arrange(by=desc(n))

# A tibble: 357 × 2
# Groups:   ice$responsible_site [357]
   `ice$responsible_site`                                              n
   <chr>                                                           <int>
 1 ERO - Pacific Enforcement Response Center                      200855
 2 VARRICK, NY, SERVICE PROCESSING CENTER (DOCKET CONTROL OFFICE)  30915
 3 DALLAS, TX, DOCKET CONTROL OFFICE                               26026
 4 ERO - Montgomery County, TX Sub Office                          19238
 5 ERO - San Antonio, TX Field Office                              18902
 6 ATLANTA, GA, DOCKET CONTROL OFFICE                              15323
 7 KROME, MIAMI, FL, DOCKET CONTROL OFFICE                         14568
 8 SAN FRANCISCO, CA, DOCKET CONTROL OFFICE                        12051
 9 NEWARK, NJ, DOCKET CONTROL OFFICE                               11871
10 ORLANDO, FL, DOCKET CONTROL OFFICE                              10458
# ℹ 347 more rows
